%YAML 1.1
%TAG !u! tag:unity3d.com,2011:
--- !u!1045 &1
EditorBuildSettings:
  m_ObjectHideFlags: 0
  serializedVersion: 2
  m_Scenes:
  - enabled: 0
    path: 
    guid: 00000000000000000000000000000000
  - enabled: 1
    path: Assets/Scenes/Scene10.unity
    guid: 068180a541f56fb44940ef1e5055331d
  - enabled: 1
    path: Assets/Scenes/Scene1.unity
    guid: 42ad7e852386f8b4da3001bcf2e60221
  - enabled: 1
    path: Assets/Scenes/Scene2.unity
    guid: b5852ea5c3839c647805641411e8533d
  - enabled: 1
    path: Assets/Scenes/Scene3.unity
    guid: 37479bbbd3fad664b9f3dd81f8a6a43b
  - enabled: 1
    path: Assets/Scenes/Scene4.unity
    guid: 9191add764165fc4bab21d836590fb28
  - enabled: 1
    path: Assets/Scenes/Scene5.unity
    guid: 848dc5122e120c749b94731eecb117ce
  - enabled: 1
    path: Assets/Scenes/Scene6.unity
    guid: 48f62298c8debad40b4d94a90f7b77bb
  - enabled: 1
    path: Assets/Scenes/Scene7.unity
    guid: a1777ce81d46f884fa6e83738a32a213
  - enabled: 1
    path: Assets/Scenes/Scene8.unity
    guid: bd413001e79695d49b2af6768f373b9b
  - enabled: 1
    path: Assets/Scenes/Scene9.unity
    guid: 36503a2bdb84f414eb9b4c67121c8eca
  m_configObjects: {}
